{"leads":[{"id":126,"leadType":null,"status":"new","pipelineStage":"new","stage":"NEW","aiScore":null,"expiryDate":null,"nextFollowUpAt":null,"assignedUserId":null,"createdAt":"2026-01-01T11:13:03.744Z","contact":{"id":136,"fullName":"Emmanuel Tawiah","phone":"+233531880607","email":null,"source":"whatsapp"},"assignedUser":null,"communicationLogs":[{"id":674,"channel":"whatsapp","direction":"in","createdAt":"2026-01-01T11:19:40.000Z"}],"expiryItems":[],"renewalProbability":null,"estimatedRenewalValue":null,"lastContact":{"id":674,"channel":"whatsapp","direction":"in","createdAt":"2026-01-01T11:19:40.000Z"}},{"id":125,"leadType":null,"status":"new","pipelineStage":"new","stage":"NEW","aiScore":null,"expiryDate":null,"nextFollowUpAt":null,"assignedUserId":null,"createdAt":"2026-01-01T11:09:48.868Z","contact":{"id":135,"fullName":"Contact +971569561762","phone":"+971569561762","email":null,"source":"whatsapp"},"assignedUser":null,"communicationLogs":[{"id":669,"channel":"whatsapp","direction":"in","createdAt":"2026-01-01T11:09:45.000Z"}],"expiryItems":[],"renewalProbability":null,"estimatedRenewalValue":null,"lastContact":{"id":669,"channel":"whatsapp","direction":"in","createdAt":"2026-01-01T11:09:45.000Z"}},{"id":124,"leadType":null,"status":"new","pipelineStage":"new","stage":"NEW","aiScore":null,"expiryDate":null,"nextFollowUpAt":null,"assignedUserId":null,"createdAt":"2026-01-01T09:54:07.742Z","contact":{"id":134,"fullName":"Today","phone":"+971525849282","email":null,"source":"whatsapp"},"assignedUser":null,"communicationLogs":[{"id":668,"channel":"whatsapp","direction":"in","createdAt":"2026-01-01T10:02:07.000Z"}],"expiryItems":[],"renewalProbability":null,"estimatedRenewalValue":null,"lastContact":{"id":668,"channel":"whatsapp","direction":"in","createdAt":"2026-01-01T10:02:07.000Z"}},{"id":123,"leadType":null,"status":"new","pipelineStage":"new","stage":"NEW","aiScore":null,"expiryDate":null,"nextFollowUpAt":null,"assignedUserId":null,"createdAt":"2026-01-01T09:07:59.887Z","contact":{"id":133,"fullName":"Contact +260765805696","phone":"+260765805696","email":null,"source":"whatsapp"},"assignedUser":null,"communicationLogs":[{"id":658,"channel":"whatsapp","direction":"in","createdAt":"2026-01-01T09:07:58.000Z"}],"expiryItems":[],"renewalProbability":null,"estimatedRenewalValue":null,"lastContact":{"id":658,"channel":"whatsapp","direction":"in","createdAt":"2026-01-01T09:07:58.000Z"}},{"id":122,"leadType":null,"status":"new","pipelineStage":"new","stage":"NEW","aiScore":null,"expiryDate":null,"nextFollowUpAt":null,"assignedUserId":null,"createdAt":"2026-01-01T08:48:18.330Z","contact":{"id":132,"fullName":"Contact 23777774195","phone":"23777774195","email":null,"source":"whatsapp"},"assignedUser":null,"communicationLogs":[{"id":652,"channel":"whatsapp","direction":"in","createdAt":"2026-01-01T08:48:15.000Z"}],"expiryItems":[],"renewalProbability":null,"estimatedRenewalValue":null,"lastContact":{"id":652,"channel":"whatsapp","direction":"in","createdAt":"2026-01-01T08:48:15.000Z"}},{"id":121,"leadType":null,"status":"new","pipelineStage":"new","stage":"NEW","aiScore":null,"expiryDate":null,"nextFollowUpAt":null,"assignedUserId":null,"createdAt":"2026-01-01T08:30:15.054Z","contact":{"id":131,"fullName":"Good day","phone":"+971522036731","email":null,"source":"whatsapp"},"assignedUser":null,"communicationLogs":[{"id":660,"channel":"whatsapp","direction":"in","createdAt":"2026-01-01T09:25:37.000Z"}],"expiryItems":[],"renewalProbability":null,"estimatedRenewalValue":null,"lastContact":{"id":660,"channel":"whatsapp","direction":"in","createdAt":"2026-01-01T09:25:37.000Z"}},{"id":120,"leadType":null,"status":"new","pipelineStage":"new","stage":"NEW","aiScore":null,"expiryDate":null,"nextFollowUpAt":null,"assignedUserId":null,"createdAt":"2026-01-01T08:16:13.835Z","contact":{"id":130,"fullName":"Can I get your location","phone":"+971527359226","email":null,"source":"whatsapp"},"assignedUser":null,"communicationLogs":[{"id":643,"channel":"whatsapp","direction":"in","createdAt":"2026-01-01T08:19:06.000Z"}],"expiryItems":[],"renewalProbability":null,"estimatedRenewalValue":null,"lastContact":{"id":643,"channel":"whatsapp","direction":"in","createdAt":"2026-01-01T08:19:06.000Z"}},{"id":119,"leadType":null,"status":"new","pipelineStage":"new","stage":"NEW","aiScore":null,"expiryDate":null,"nextFollowUpAt":null,"assignedUserId":null,"createdAt":"2026-01-01T06:41:50.071Z","contact":{"id":129,"fullName":"Dubai visit visa","phone":"+256751719789","email":null,"source":"whatsapp"},"assignedUser":null,"communicationLogs":[{"id":638,"channel":"whatsapp","direction":"in","createdAt":"2026-01-01T06:49:00.000Z"}],"expiryItems":[],"renewalProbability":null,"estimatedRenewalValue":null,"lastContact":{"id":638,"channel":"whatsapp","direction":"in","createdAt":"2026-01-01T06:49:00.000Z"}},{"id":118,"leadType":null,"status":"new","pipelineStage":"new","stage":"NEW","aiScore":null,"expiryDate":null,"nextFollowUpAt":null,"assignedUserId":null,"createdAt":"2026-01-01T06:41:49.819Z","contact":{"id":128,"fullName":"Contact +971508201069","phone":"+971508201069","email":null,"source":"whatsapp"},"assignedUser":null,"communicationLogs":[{"id":630,"channel":"whatsapp","direction":"in","createdAt":"2025-12-31T14:28:40.000Z"}],"expiryItems":[],"renewalProbability":null,"estimatedRenewalValue":null,"lastContact":{"id":630,"channel":"whatsapp","direction":"in","createdAt":"2025-12-31T14:28:40.000Z"}},{"id":117,"leadType":null,"status":"new","pipelineStage":"new","stage":"NEW","aiScore":null,"expiryDate":null,"nextFollowUpAt":null,"assignedUserId":null,"createdAt":"2026-01-01T06:41:49.726Z","contact":{"id":127,"fullName":"Contact +971501464531","phone":"+971501464531","email":null,"source":"whatsapp"},"assignedUser":null,"communicationLogs":[{"id":631,"channel":"whatsapp","direction":"in","createdAt":"2026-01-01T03:52:02.000Z"}],"expiryItems":[],"renewalProbability":null,"estimatedRenewalValue":null,"lastContact":{"id":631,"channel":"whatsapp","direction":"in","createdAt":"2026-01-01T03:52:02.000Z"}},{"id":116,"leadType":null,"status":"new","pipelineStage":"new","stage":"NEW","aiScore":null,"expiryDate":null,"nextFollowUpAt":null,"assignedUserId":null,"createdAt":"2026-01-01T05:54:33.642Z","contact":{"id":126,"fullName":"I’m Deon","phone":"+971569344047","email":null,"source":"whatsapp"},"assignedUser":null,"communicationLogs":[{"id":637,"channel":"whatsapp","direction":"in","createdAt":"2026-01-01T06:46:08.000Z"}],"expiryItems":[],"renewalProbability":null,"estimatedRenewalValue":null,"lastContact":{"id":637,"channel":"whatsapp","direction":"in","createdAt":"2026-01-01T06:46:08.000Z"}},{"id":115,"leadType":null,"status":"new","pipelineStage":"new","stage":"NEW","aiScore":null,"expiryDate":null,"nextFollowUpAt":null,"assignedUserId":null,"createdAt":"2026-01-01T05:38:06.186Z","contact":{"id":125,"fullName":"Visit visa","phone":"+971502455814","email":null,"source":"whatsapp"},"assignedUser":null,"communicationLogs":[{"id":619,"channel":"whatsapp","direction":"in","createdAt":"2026-01-01T06:23:56.000Z"}],"expiryItems":[],"renewalProbability":null,"estimatedRenewalValue":null,"lastContact":{"id":619,"channel":"whatsapp","direction":"in","createdAt":"2026-01-01T06:23:56.000Z"}},{"id":114,"leadType":null,"status":"new","pipelineStage":"new","stage":"NEW","aiScore":null,"expiryDate":null,"nextFollowUpAt":null,"assignedUserId":null,"createdAt":"2026-01-01T04:05:14.453Z","contact":{"id":124,"fullName":"Justice kwame Afevor from Ghana currently in Dubai sonapur","phone":"+971544871674","email":null,"source":"whatsapp"},"assignedUser":null,"communicationLogs":[{"id":607,"channel":"whatsapp","direction":"in","createdAt":"2026-01-01T04:12:16.000Z"}],"expiryItems":[],"renewalProbability":null,"estimatedRenewalValue":null,"lastContact":{"id":607,"channel":"whatsapp","direction":"in","createdAt":"2026-01-01T04:12:16.000Z"}},{"id":113,"leadType":null,"status":"new","pipelineStage":"new","stage":"NEW","aiScore":null,"expiryDate":null,"nextFollowUpAt":null,"assignedUserId":null,"createdAt":"2026-01-01T02:53:56.560Z","contact":{"id":123,"fullName":"Contact +971508001525","phone":"+971508001525","email":null,"source":"whatsapp"},"assignedUser":null,"communicationLogs":[{"id":603,"channel":"whatsapp","direction":"in","createdAt":"2025-12-30T04:22:28.000Z"}],"expiryItems":[],"renewalProbability":null,"estimatedRenewalValue":null,"lastContact":{"id":603,"channel":"whatsapp","direction":"in","createdAt":"2025-12-30T04:22:28.000Z"}},{"id":112,"leadType":null,"status":"new","pipelineStage":"new","stage":"NEW","aiScore":null,"expiryDate":null,"nextFollowUpAt":null,"assignedUserId":null,"createdAt":"2026-01-01T02:29:11.909Z","contact":{"id":122,"fullName":"Contact +971569008144","phone":"+971569008144","email":null,"source":"whatsapp"},"assignedUser":null,"communicationLogs":[{"id":593,"channel":"whatsapp","direction":"in","createdAt":"2026-01-01T02:29:09.000Z"}],"expiryItems":[],"renewalProbability":null,"estimatedRenewalValue":null,"lastContact":{"id":593,"channel":"whatsapp","direction":"in","createdAt":"2026-01-01T02:29:09.000Z"}},{"id":111,"leadType":null,"status":"new","pipelineStage":"new","stage":"NEW","aiScore":null,"expiryDate":null,"nextFollowUpAt":null,"assignedUserId":null,"createdAt":"2025-12-31T23:41:07.285Z","contact":{"id":121,"fullName":"Contact +971522985218","phone":"+971522985218","email":null,"source":"whatsapp"},"assignedUser":null,"communicationLogs":[{"id":585,"channel":"whatsapp","direction":"in","createdAt":"2025-12-31T23:41:02.000Z"}],"expiryItems":[],"renewalProbability":null,"estimatedRenewalValue":null,"lastContact":{"id":585,"channel":"whatsapp","direction":"in","createdAt":"2025-12-31T23:41:02.000Z"}},{"id":110,"leadType":null,"status":"new","pipelineStage":"new","stage":"NEW","aiScore":null,"expiryDate":null,"nextFollowUpAt":null,"assignedUserId":null,"createdAt":"2025-12-31T23:32:04.307Z","contact":{"id":120,"fullName":"Zimbabwean","phone":"+971547797172","email":null,"source":"whatsapp"},"assignedUser":null,"communicationLogs":[{"id":588,"channel":"whatsapp","direction":"in","createdAt":"2025-12-31T23:55:01.000Z"}],"expiryItems":[],"renewalProbability":null,"estimatedRenewalValue":null,"lastContact":{"id":588,"channel":"whatsapp","direction":"in","createdAt":"2025-12-31T23:55:01.000Z"}},{"id":109,"leadType":null,"status":"new","pipelineStage":"new","stage":"NEW","aiScore":null,"expiryDate":null,"nextFollowUpAt":null,"assignedUserId":null,"createdAt":"2025-12-31T23:09:51.444Z","contact":{"id":119,"fullName":"Ibrahim abdul conteh","phone":"+971506790564","email":null,"source":"whatsapp"},"assignedUser":null,"communicationLogs":[{"id":602,"channel":"whatsapp","direction":"in","createdAt":"2026-01-01T02:40:25.000Z"}],"expiryItems":[],"renewalProbability":null,"estimatedRenewalValue":null,"lastContact":{"id":602,"channel":"whatsapp","direction":"in","createdAt":"2026-01-01T02:40:25.000Z"}},{"id":108,"leadType":null,"status":"new","pipelineStage":"new","stage":"NEW","aiScore":null,"expiryDate":null,"nextFollowUpAt":null,"assignedUserId":null,"createdAt":"2025-12-31T21:27:40.647Z","contact":{"id":118,"fullName":"Contact +254702832209","phone":"+254702832209","email":null,"source":"whatsapp"},"assignedUser":null,"communicationLogs":[{"id":572,"channel":"whatsapp","direction":"in","createdAt":"2025-12-31T21:27:37.000Z"}],"expiryItems":[],"renewalProbability":null,"estimatedRenewalValue":null,"lastContact":{"id":572,"channel":"whatsapp","direction":"in","createdAt":"2025-12-31T21:27:37.000Z"}},{"id":107,"leadType":null,"status":"new","pipelineStage":"new","stage":"NEW","aiScore":null,"expiryDate":null,"nextFollowUpAt":null,"assignedUserId":null,"createdAt":"2025-12-31T19:21:53.967Z","contact":{"id":117,"fullName":"I need a working visa","phone":"+2349123208337","email":null,"source":"whatsapp"},"assignedUser":null,"communicationLogs":[{"id":657,"channel":"whatsapp","direction":"in","createdAt":"2026-01-01T09:05:33.000Z"}],"expiryItems":[],"renewalProbability":null,"estimatedRenewalValue":null,"lastContact":{"id":657,"channel":"whatsapp","direction":"in","createdAt":"2026-01-01T09:05:33.000Z"}},{"id":106,"leadType":null,"status":"new","pipelineStage":"new","stage":"NEW","aiScore":null,"expiryDate":null,"nextFollowUpAt":null,"assignedUserId":null,"createdAt":"2025-12-31T07:25:05.127Z","contact":{"id":116,"fullName":"[audio]","phone":"+971562520051","email":null,"source":"whatsapp"},"assignedUser":null,"communicationLogs":[{"id":560,"channel":"whatsapp","direction":"in","createdAt":"2025-12-31T07:35:03.000Z"}],"expiryItems":[],"renewalProbability":null,"estimatedRenewalValue":null,"lastContact":{"id":560,"channel":"whatsapp","direction":"in","createdAt":"2025-12-31T07:35:03.000Z"}},{"id":105,"leadType":null,"status":"new","pipelineStage":"new","stage":"NEW","aiScore":null,"expiryDate":null,"nextFollowUpAt":null,"assignedUserId":null,"createdAt":"2025-12-31T06:50:08.851Z","contact":{"id":115,"fullName":"Contact +971543626105","phone":"+971543626105","email":null,"source":"whatsapp"},"assignedUser":null,"communicationLogs":[{"id":550,"channel":"whatsapp","direction":"in","createdAt":"2025-12-30T14:11:33.000Z"}],"expiryItems":[],"renewalProbability":null,"estimatedRenewalValue":null,"lastContact":{"id":550,"channel":"whatsapp","direction":"in","createdAt":"2025-12-30T14:11:33.000Z"}},{"id":104,"leadType":null,"status":"new","pipelineStage":"new","stage":"NEW","aiScore":null,"expiryDate":null,"nextFollowUpAt":null,"assignedUserId":null,"createdAt":"2025-12-31T06:50:07.876Z","contact":{"id":114,"fullName":"Contact +917091235286","phone":"+917091235286","email":null,"source":"whatsapp"},"assignedUser":null,"communicationLogs":[{"id":549,"channel":"whatsapp","direction":"in","createdAt":"2025-12-29T16:18:44.000Z"}],"expiryItems":[],"renewalProbability":null,"estimatedRenewalValue":null,"lastContact":{"id":549,"channel":"whatsapp","direction":"in","createdAt":"2025-12-29T16:18:44.000Z"}},{"id":103,"leadType":null,"status":"new","pipelineStage":"new","stage":"NEW","aiScore":null,"expiryDate":null,"nextFollowUpAt":null,"assignedUserId":null,"createdAt":"2025-12-31T06:12:07.788Z","contact":{"id":113,"fullName":"Good morning","phone":"+971502798676","email":null,"source":"whatsapp"},"assignedUser":null,"communicationLogs":[{"id":548,"channel":"whatsapp","direction":"in","createdAt":"2025-12-31T06:12:36.000Z"}],"expiryItems":[],"renewalProbability":null,"estimatedRenewalValue":null,"lastContact":{"id":548,"channel":"whatsapp","direction":"in","createdAt":"2025-12-31T06:12:36.000Z"}},{"id":102,"leadType":null,"status":"new","pipelineStage":"new","stage":"NEW","aiScore":null,"expiryDate":null,"nextFollowUpAt":null,"assignedUserId":null,"createdAt":"2025-12-30T22:31:13.256Z","contact":{"id":112,"fullName":"Amjad","phone":"+971542865051","email":null,"source":"whatsapp"},"assignedUser":null,"communicationLogs":[{"id":545,"channel":"whatsapp","direction":"in","createdAt":"2025-12-30T22:33:34.000Z"}],"expiryItems":[],"renewalProbability":null,"estimatedRenewalValue":null,"lastContact":{"id":545,"channel":"whatsapp","direction":"in","createdAt":"2025-12-30T22:33:34.000Z"}},{"id":101,"leadType":null,"status":"new","pipelineStage":"new","stage":"NEW","aiScore":null,"expiryDate":null,"nextFollowUpAt":null,"assignedUserId":null,"createdAt":"2025-12-30T22:31:12.191Z","contact":{"id":111,"fullName":"Contact +97466148035","phone":"+97466148035","email":null,"source":"whatsapp"},"assignedUser":null,"communicationLogs":[{"id":540,"channel":"whatsapp","direction":"in","createdAt":"2025-12-29T16:39:05.000Z"}],"expiryItems":[],"renewalProbability":null,"estimatedRenewalValue":null,"lastContact":{"id":540,"channel":"whatsapp","direction":"in","createdAt":"2025-12-29T16:39:05.000Z"}},{"id":100,"leadType":null,"status":"new","pipelineStage":"new","stage":"NEW","aiScore":null,"expiryDate":null,"nextFollowUpAt":null,"assignedUserId":null,"createdAt":"2025-12-30T13:17:57.417Z","contact":{"id":110,"fullName":"looking for a residece visa","phone":"+918594011874","email":null,"source":"whatsapp"},"assignedUser":null,"communicationLogs":[{"id":532,"channel":"whatsapp","direction":"in","createdAt":"2025-12-30T17:38:17.000Z"}],"expiryItems":[],"renewalProbability":null,"estimatedRenewalValue":null,"lastContact":{"id":532,"channel":"whatsapp","direction":"in","createdAt":"2025-12-30T17:38:17.000Z"}},{"id":99,"leadType":null,"status":"new","pipelineStage":"new","stage":"NEW","aiScore":null,"expiryDate":null,"nextFollowUpAt":null,"assignedUserId":null,"createdAt":"2025-12-30T09:26:08.392Z","contact":{"id":109,"fullName":"Contact +971543654395","phone":"+971543654395","email":null,"source":"whatsapp"},"assignedUser":null,"communicationLogs":[{"id":513,"channel":"whatsapp","direction":"in","createdAt":"2025-12-30T09:26:16.000Z"}],"expiryItems":[],"renewalProbability":null,"estimatedRenewalValue":null,"lastContact":{"id":513,"channel":"whatsapp","direction":"in","createdAt":"2025-12-30T09:26:16.000Z"}},{"id":98,"leadType":null,"status":"new","pipelineStage":"new","stage":"NEW","aiScore":null,"expiryDate":null,"nextFollowUpAt":null,"assignedUserId":null,"createdAt":"2025-12-30T08:50:27.304Z","contact":{"id":108,"fullName":"Contact +971501638456","phone":"+971501638456","email":null,"source":"whatsapp"},"assignedUser":null,"communicationLogs":[{"id":510,"channel":"whatsapp","direction":"in","createdAt":"2025-12-30T08:50:36.000Z"}],"expiryItems":[],"renewalProbability":null,"estimatedRenewalValue":null,"lastContact":{"id":510,"channel":"whatsapp","direction":"in","createdAt":"2025-12-30T08:50:36.000Z"}},{"id":97,"leadType":null,"status":"new","pipelineStage":"new","stage":"NEW","aiScore":null,"expiryDate":null,"nextFollowUpAt":null,"assignedUserId":null,"createdAt":"2025-12-29T19:56:38.759Z","contact":{"id":107,"fullName":"Contact +971544090451","phone":"+971544090451","email":null,"source":"whatsapp"},"assignedUser":null,"communicationLogs":[{"id":507,"channel":"whatsapp","direction":"in","createdAt":"2025-12-29T19:57:22.000Z"}],"expiryItems":[],"renewalProbability":null,"estimatedRenewalValue":null,"lastContact":{"id":507,"channel":"whatsapp","direction":"in","createdAt":"2025-12-29T19:57:22.000Z"}},{"id":96,"leadType":null,"status":"new","pipelineStage":"new","stage":"NEW","aiScore":null,"expiryDate":null,"nextFollowUpAt":null,"assignedUserId":null,"createdAt":"2025-12-29T17:11:52.738Z","contact":{"id":106,"fullName":"Contact +971564861311","phone":"+971564861311","email":null,"source":"whatsapp"},"assignedUser":null,"communicationLogs":[{"id":504,"channel":"whatsapp","direction":"in","createdAt":"2025-12-29T17:11:53.000Z"}],"expiryItems":[],"renewalProbability":null,"estimatedRenewalValue":null,"lastContact":{"id":504,"channel":"whatsapp","direction":"in","createdAt":"2025-12-29T17:11:53.000Z"}},{"id":95,"leadType":null,"status":"new","pipelineStage":"new","stage":"NEW","aiScore":null,"expiryDate":null,"nextFollowUpAt":null,"assignedUserId":null,"createdAt":"2025-12-29T12:49:11.868Z","contact":{"id":105,"fullName":"Hi","phone":"971556515839","email":null,"source":"whatsapp"},"assignedUser":null,"communicationLogs":[{"id":539,"channel":"whatsapp","direction":"in","createdAt":"2025-12-30T19:00:01.000Z"}],"expiryItems":[],"renewalProbability":null,"estimatedRenewalValue":null,"lastContact":{"id":539,"channel":"whatsapp","direction":"in","createdAt":"2025-12-30T19:00:01.000Z"}},{"id":94,"leadType":null,"status":"new","pipelineStage":"new","stage":"NEW","aiScore":null,"expiryDate":"2026-02-08T20:00:00.000Z","nextFollowUpAt":null,"assignedUserId":null,"createdAt":"2025-12-29T11:39:51.011Z","contact":{"id":104,"fullName":"Sync Test User","phone":"+971926208978","email":null,"source":"whatsapp"},"assignedUser":null,"communicationLogs":[{"id":492,"channel":"whatsapp","direction":"in","createdAt":"2025-12-29T11:40:09.703Z"}],"expiryItems":[{"id":5,"type":"VISA_EXPIRY","expiryDate":"2026-02-08T20:00:00.000Z","renewalStatus":"NOT_STARTED"}],"renewalProbability":null,"estimatedRenewalValue":null,"lastContact":{"id":492,"channel":"whatsapp","direction":"in","createdAt":"2025-12-29T11:40:09.703Z"}},{"id":93,"leadType":null,"status":"new","pipelineStage":"new","stage":"CONTACTED","aiScore":null,"expiryDate":null,"nextFollowUpAt":null,"assignedUserId":null,"createdAt":"2025-12-29T09:17:13.539Z","contact":{"id":103,"fullName":"bashir jamac","phone":"971507042270","email":null,"source":"whatsapp"},"assignedUser":null,"communicationLogs":[{"id":673,"channel":"whatsapp","direction":"in","createdAt":"2026-01-01T11:19:30.000Z"}],"expiryItems":[],"renewalProbability":75,"estimatedRenewalValue":null,"lastContact":{"id":673,"channel":"whatsapp","direction":"in","createdAt":"2026-01-01T11:19:30.000Z"}},{"id":90,"leadType":null,"status":"NEW","pipelineStage":"NEW","stage":"NEW","aiScore":null,"expiryDate":null,"nextFollowUpAt":null,"assignedUserId":null,"createdAt":"2025-12-28T19:31:44.080Z","contact":{"id":100,"fullName":"Test User","phone":"+971247464389","email":null,"source":"test"},"assignedUser":null,"communicationLogs":[],"expiryItems":[],"renewalProbability":null,"estimatedRenewalValue":null,"lastContact":null},{"id":89,"leadType":null,"status":"NEW","pipelineStage":"NEW","stage":"NEW","aiScore":null,"expiryDate":null,"nextFollowUpAt":null,"assignedUserId":null,"createdAt":"2025-12-28T19:30:08.463Z","contact":{"id":99,"fullName":"Test User","phone":"+971216952192","email":null,"source":"test"},"assignedUser":null,"communicationLogs":[],"expiryItems":[],"renewalProbability":null,"estimatedRenewalValue":null,"lastContact":null},{"id":88,"leadType":null,"status":"new","pipelineStage":"new","stage":"NEW","aiScore":null,"expiryDate":null,"nextFollowUpAt":null,"assignedUserId":null,"createdAt":"2025-12-28T18:26:37.913Z","contact":{"id":96,"fullName":"Visa is about to expire","phone":"971522418692","email":null,"source":"whatsapp"},"assignedUser":null,"communicationLogs":[{"id":493,"channel":"whatsapp","direction":"in","createdAt":"2025-12-29T12:19:12.000Z"}],"expiryItems":[],"renewalProbability":null,"estimatedRenewalValue":null,"lastContact":{"id":493,"channel":"whatsapp","direction":"in","createdAt":"2025-12-29T12:19:12.000Z"}},{"id":87,"leadType":null,"status":"new","pipelineStage":"new","stage":"NEW","aiScore":null,"expiryDate":null,"nextFollowUpAt":null,"assignedUserId":null,"createdAt":"2025-12-28T16:20:06.724Z","contact":{"id":95,"fullName":"Salam","phone":"971525403025","email":null,"source":"whatsapp"},"assignedUser":null,"communicationLogs":[{"id":428,"channel":"whatsapp","direction":"in","createdAt":"2025-12-28T16:23:54.000Z"}],"expiryItems":[],"renewalProbability":null,"estimatedRenewalValue":null,"lastContact":{"id":428,"channel":"whatsapp","direction":"in","createdAt":"2025-12-28T16:23:54.000Z"}},{"id":80,"leadType":null,"status":"new","pipelineStage":"new","stage":"NEW","aiScore":null,"expiryDate":null,"nextFollowUpAt":null,"assignedUserId":null,"createdAt":"2025-12-28T08:04:44.682Z","contact":{"id":76,"fullName":"Test Contact (State Machine)","phone":"+971501234569","email":null,"source":"whatsapp"},"assignedUser":null,"communicationLogs":[],"expiryItems":[],"renewalProbability":null,"estimatedRenewalValue":null,"lastContact":null},{"id":77,"leadType":null,"status":"new","pipelineStage":"new","stage":"NEW","aiScore":null,"expiryDate":null,"nextFollowUpAt":null,"assignedUserId":null,"createdAt":"2025-12-28T08:03:31.714Z","contact":{"id":81,"fullName":"Test Contact","phone":"+971504886283","email":null,"source":"whatsapp"},"assignedUser":null,"communicationLogs":[],"expiryItems":[],"renewalProbability":null,"estimatedRenewalValue":null,"lastContact":null},{"id":76,"leadType":null,"status":"new","pipelineStage":"new","stage":"NEW","aiScore":null,"expiryDate":null,"nextFollowUpAt":null,"assignedUserId":null,"createdAt":"2025-12-28T08:03:30.891Z","contact":{"id":80,"fullName":"Test Contact","phone":"+971504338056","email":null,"source":"whatsapp"},"assignedUser":null,"communicationLogs":[],"expiryItems":[],"renewalProbability":null,"estimatedRenewalValue":null,"lastContact":null},{"id":74,"leadType":null,"status":"new","pipelineStage":"new","stage":"NEW","aiScore":null,"expiryDate":null,"nextFollowUpAt":null,"assignedUserId":null,"createdAt":"2025-12-28T08:03:29.659Z","contact":{"id":77,"fullName":"Test Contact","phone":"+97150626443","email":null,"source":"whatsapp"},"assignedUser":null,"communicationLogs":[],"expiryItems":[],"renewalProbability":null,"estimatedRenewalValue":null,"lastContact":null},{"id":73,"leadType":null,"status":"new","pipelineStage":"new","stage":"NEW","aiScore":null,"expiryDate":null,"nextFollowUpAt":null,"assignedUserId":null,"createdAt":"2025-12-28T08:03:11.933Z","contact":{"id":75,"fullName":"Test Contact (Idempotency)","phone":"+971501234568","email":null,"source":"whatsapp"},"assignedUser":null,"communicationLogs":[],"expiryItems":[],"renewalProbability":null,"estimatedRenewalValue":null,"lastContact":null},{"id":72,"leadType":null,"status":"new","pipelineStage":"new","stage":"NEW","aiScore":null,"expiryDate":null,"nextFollowUpAt":null,"assignedUserId":null,"createdAt":"2025-12-27T18:20:10.478Z","contact":{"id":73,"fullName":"Contact +971525811365","phone":"971525811365","email":null,"source":"whatsapp"},"assignedUser":null,"communicationLogs":[{"id":526,"channel":"whatsapp","direction":"in","createdAt":"2025-12-30T16:13:42.000Z"}],"expiryItems":[],"renewalProbability":null,"estimatedRenewalValue":null,"lastContact":{"id":526,"channel":"whatsapp","direction":"in","createdAt":"2025-12-30T16:13:42.000Z"}},{"id":71,"leadType":null,"status":"new","pipelineStage":"new","stage":"NEW","aiScore":null,"expiryDate":null,"nextFollowUpAt":null,"assignedUserId":null,"createdAt":"2025-12-27T18:13:23.211Z","contact":{"id":74,"fullName":"Contact 260777711059","phone":"260777711059","email":null,"source":"whatsapp"},"assignedUser":null,"communicationLogs":[{"id":500,"channel":"whatsapp","direction":"in","createdAt":"2025-12-29T14:49:26.000Z"}],"expiryItems":[],"renewalProbability":null,"estimatedRenewalValue":null,"lastContact":{"id":500,"channel":"whatsapp","direction":"in","createdAt":"2025-12-29T14:49:26.000Z"}},{"id":68,"leadType":null,"status":"new","pipelineStage":"new","stage":"NEW","aiScore":90,"expiryDate":null,"nextFollowUpAt":null,"assignedUserId":null,"createdAt":"2025-12-27T14:25:02.362Z","contact":{"id":70,"fullName":"Unknown","phone":"+966544534091","email":null,"source":"whatsapp"},"assignedUser":null,"communicationLogs":[{"id":292,"channel":"whatsapp","direction":"in","createdAt":"2025-12-27T14:43:45.000Z"}],"expiryItems":[],"renewalProbability":null,"estimatedRenewalValue":null,"lastContact":{"id":292,"channel":"whatsapp","direction":"in","createdAt":"2025-12-27T14:43:45.000Z"}},{"id":66,"leadType":null,"status":"new","pipelineStage":"new","stage":"NEW","aiScore":null,"expiryDate":null,"nextFollowUpAt":null,"assignedUserId":null,"createdAt":"2025-12-27T12:06:56.295Z","contact":{"id":68,"fullName":"Hamada","phone":"+260777711059","email":null,"source":"whatsapp"},"assignedUser":null,"communicationLogs":[{"id":537,"channel":"whatsapp","direction":"in","createdAt":"2025-12-30T18:53:29.000Z"}],"expiryItems":[],"renewalProbability":null,"estimatedRenewalValue":null,"lastContact":{"id":537,"channel":"whatsapp","direction":"in","createdAt":"2025-12-30T18:53:29.000Z"}},{"id":65,"leadType":null,"status":"new","pipelineStage":"new","stage":"NEW","aiScore":null,"expiryDate":null,"nextFollowUpAt":null,"assignedUserId":null,"createdAt":"2025-12-27T09:36:11.770Z","contact":{"id":67,"fullName":"Unknown","phone":"+971529322069","email":null,"source":"whatsapp"},"assignedUser":null,"communicationLogs":[],"expiryItems":[],"renewalProbability":null,"estimatedRenewalValue":null,"lastContact":null},{"id":64,"leadType":null,"status":"new","pipelineStage":"new","stage":"NEW","aiScore":null,"expiryDate":null,"nextFollowUpAt":null,"assignedUserId":null,"createdAt":"2025-12-27T09:19:34.621Z","contact":{"id":66,"fullName":"Unknown","phone":"+971547309153","email":null,"source":"whatsapp"},"assignedUser":null,"communicationLogs":[],"expiryItems":[],"renewalProbability":null,"estimatedRenewalValue":null,"lastContact":null},{"id":63,"leadType":null,"status":"new","pipelineStage":"new","stage":"NEW","aiScore":null,"expiryDate":null,"nextFollowUpAt":null,"assignedUserId":null,"createdAt":"2025-12-26T09:52:18.007Z","contact":{"id":65,"fullName":"+971509653610","phone":"+971509653610","email":null,"source":"whatsapp"},"assignedUser":null,"communicationLogs":[{"id":250,"channel":"whatsapp","direction":"inbound","createdAt":"2025-12-26T09:58:46.301Z"}],"expiryItems":[{"id":3,"type":"EMIRATES_ID_EXPIRY","expiryDate":"2026-01-03T00:00:00.000Z","renewalStatus":"NOT_STARTED"}],"renewalProbability":65,"estimatedRenewalValue":null,"lastContact":{"id":250,"channel":"whatsapp","direction":"inbound","createdAt":"2025-12-26T09:58:46.301Z"}}],"pagination":{"page":1,"limit":50,"total":69,"totalPages":2}}